<svg viewBox="0 0 250 200">
<rect x=0 y=0 width=300 height=200 fill=white />
<path d="M 10 10 A 30 45 0 0 0 190 10"/>
<path d="M 160 90 A 30 15 0 0 0 160 25"
fill="none" stroke="black" stroke-width="15"/>
</svg>
